…
hill_func_parti(comm, traits, q = 0) # functional diversity across all sites
##   q raoQ_gamma FD_gamma FD_alpha FD_beta local_similarity region_similarity
## 1 0  0.4529152 29.66099 14.15941 2.09479        0.9889415         0.4720957

hill_phylo_parti(comm, tree, q = 0) # phylogenetic diversity across all sites
##   q PD_gamma PD_alpha  PD_beta local_similarity region_similarity
## 1 0 8.292885 5.119871 1.619745        0.9311395          0.574868
```

## Calculate pairwise taxonomic, functional, and phylogenetic diversity

``` r
# pairwise taxonomic diversity
hill_taxa_parti_pairwise(comm, q = 0, show_warning = FALSE, .progress = FALSE) 
## # A tibble: 45 x 8
##        q site1 site2 TD_gamma TD_alpha TD_beta local_similarity region_similari…
##    <dbl> <chr> <chr>    <dbl>    <dbl>   <dbl>            <dbl>            <dbl>
##  1     0 com1  com2         6      3.5    1.71            0.286            0.167
##  2     0 com1  com3         5      3.5    1.43            0.571            0.400
##  3     0 com2  com3         5      3      1.67            0.333            0.200
##  4     0 com1  com4         5      3      1.67            0.333            0.200
##  5     0 com2  com4         5      2.5    2               0                0    
##  6     0 com3  com4         4      2.5    1.6             0.400            0.25 
##  7     0 com1  com5         6      3.5    1.71            0.286            0.167
##  8     0 com2  com5         4      3      1.33            0.667            0.5  
##  9     0 com3  com5         6      3      2               0                0    
## 10     0 com4  com5         4      2.5    1.6             0.400            0.25 
## # … with 35 more rows
# pairwise functional diversity
hill_func_parti_pairwise(comm, traits, q = 0, show_warning = FALSE, .progress = FALSE) 
## # A tibble: 45 x 8
##        q site1 site2 FD_gamma FD_alpha FD_beta local_similarity region_similari…
##    <dbl> <chr> <chr>    <dbl>    <dbl>   <dbl>            <dbl>            <dbl>
##  1     0 com1  com2     15.9     10.3     1.54            0.821            0.534
##  2     0 com1  com3     10.7      7.96    1.35            0.883            0.655
##  3     0 com2  com3     11.1      7.03    1.58            0.807            0.511
##  4     0 com1  com4     11.6      7.90    1.47            0.843            0.573
##  5     0 com2  com4     11.7      6.85    1.70            0.765            0.449
##  6     0 com3  com4      6.60     4.45    1.48            0.839            0.566
##  7     0 com1  com5     17.3     11.3     1.54            0.821            0.534
##  8     0 com2  com5      7.86     5.92    1.33            0.891            0.671
##  9     0 com3  com5     16.2      9.72    1.66            0.780            0.469
## 10     0 com4  com5      8.00     5.32    1.50            0.832            0.554
## # … with 35 more rows
# pairwise phylogenetic diversity
hill_phylo_parti_pairwise(comm, tree, q = 0, show_warning = FALSE, .progress = FALSE) 
## # A tibble: 45 x 8
##        q site1 site2 PD_gamma PD_alpha PD_beta local_similarity region_similari…
##    <dbl> <chr> <chr>    <dbl>    <dbl>   <dbl>            <dbl>            <dbl>
##  1     0 com1  com2      6.79     5.06    1.34           0.657            0.489 
##  2     0 com1  com3      6.14     4.95    1.24           0.759            0.611 
##  3     0 com2  com3      6.75     4.57    1.48           0.523            0.355 
##  4     0 com1  com4      6.38     3.99    1.60           0.400            0.250 
##  5     0 com2  com4      7.13     3.62    1.97           0.0284           0.0144
##  6     0 com3  com4      5.42     3.51    1.54           0.455            0.295 
##  7     0 com1  com5      7.04     5.63    1.25           0.750            0.599 
##  8     0 com2  com5      6.54     5.26    1.24           0.756            0.608 
##  9     0 com3  com5      7.71     5.15    1.50           0.502            0.335 
## 10     0 com4  com5      6.42     4.19    1.53           0.467            0.305 
## # … with 35 more rows
```
…
